{"hfid": "0x1e0f34a000000000", "fid": 2166007807587909632, "ip": "127.0.0.1", "port": 12345, "unbuffered": false, "pubsub": true, "netio_pages": 256, "netio_pagesize": 64, "host": "pc-tbed-felix-07.cern.ch", "pid": 5855, "user": "duns"}
{"hfid": "0x1e0f34a000010000", "fid": 2166007807587975168, "ip": "127.0.0.1", "port": 12345, "unbuffered": false, "pubsub": true, "netio_pages": 256, "netio_pagesize": 64, "host": "pc-tbed-felix-07.cern.ch", "pid": 5855, "user": "duns"}
{"hfid": "0x1e0f34a0000a0000", "fid": 2166007807588564992, "ip": "127.0.0.1", "port": 12345, "unbuffered": false, "pubsub": true, "netio_pages": 256, "netio_pagesize": 64, "host": "pc-tbed-felix-07.cern.ch", "pid": 5855, "user": "duns"}
{"hfid": "0x1e0f34a000170000", "fid": 2166007807589416960, "ip": "127.0.0.1", "port": 12345, "unbuffered": false, "pubsub": true, "netio_pages": 256, "netio_pagesize": 64, "host": "pc-tbed-felix-07.cern.ch", "pid": 5855, "user": "duns"}
{"hfid": "0x1e0f34a000180000", "fid": 2166007807589482496, "ip": "127.0.0.1", "port": 12345, "unbuffered": false, "pubsub": true, "netio_pages": 256, "netio_pagesize": 64, "host": "pc-tbed-felix-07.cern.ch", "pid": 5855, "user": "duns"}
{"hfid": "0x1e0f34a0001a0000", "fid": 2166007807589613568, "ip": "127.0.0.1", "port": 12345, "unbuffered": false, "pubsub": true, "netio_pages": 256, "netio_pagesize": 64, "host": "pc-tbed-felix-07.cern.ch", "pid": 5855, "user": "duns"}
{"hfid": "0x1e0f34a000230000", "fid": 2166007807590203392, "ip": "127.0.0.1", "port": 12345, "unbuffered": false, "pubsub": true, "netio_pages": 256, "netio_pagesize": 64, "host": "pc-tbed-felix-07.cern.ch", "pid": 5855, "user": "duns"}
{"hfid": "0x1e0f34a000240000", "fid": 2166007807590268928, "ip": "127.0.0.1", "port": 12345, "unbuffered": false, "pubsub": true, "netio_pages": 256, "netio_pagesize": 64, "host": "pc-tbed-felix-07.cern.ch", "pid": 5855, "user": "duns"}
{"hfid": "0x1e0f34a000270000", "fid": 2166007807590465536, "ip": "127.0.0.1", "port": 12345, "unbuffered": false, "pubsub": true, "netio_pages": 256, "netio_pagesize": 64, "host": "pc-tbed-felix-07.cern.ch", "pid": 5855, "user": "duns"}
{"hfid": "0x1e0f34a000280000", "fid": 2166007807590531072, "ip": "127.0.0.1", "port": 12345, "unbuffered": false, "pubsub": true, "netio_pages": 256, "netio_pagesize": 64, "host": "pc-tbed-felix-07.cern.ch", "pid": 5855, "user": "duns"}
{"hfid": "0x1e0f34a0002c0000", "fid": 2166007807590793216, "ip": "127.0.0.1", "port": 12345, "unbuffered": false, "pubsub": true, "netio_pages": 256, "netio_pagesize": 64, "host": "pc-tbed-felix-07.cern.ch", "pid": 5855, "user": "duns"}
{"hfid": "0x1e0f34a0002e0000", "fid": 2166007807590924288, "ip": "127.0.0.1", "port": 12345, "unbuffered": false, "pubsub": true, "netio_pages": 256, "netio_pagesize": 64, "host": "pc-tbed-felix-07.cern.ch", "pid": 5855, "user": "duns"}
{"hfid": "0x1e0f34a000330000", "fid": 2166007807591251968, "ip": "127.0.0.1", "port": 12345, "unbuffered": false, "pubsub": true, "netio_pages": 256, "netio_pagesize": 64, "host": "pc-tbed-felix-07.cern.ch", "pid": 5855, "user": "duns"}
{"hfid": "0x1e0f34a000360000", "fid": 2166007807591448576, "ip": "127.0.0.1", "port": 12345, "unbuffered": false, "pubsub": true, "netio_pages": 256, "netio_pagesize": 64, "host": "pc-tbed-felix-07.cern.ch", "pid": 5855, "user": "duns"}
{"hfid": "0x1e0f34a000380000", "fid": 2166007807591579648, "ip": "127.0.0.1", "port": 12345, "unbuffered": false, "pubsub": true, "netio_pages": 256, "netio_pagesize": 64, "host": "pc-tbed-felix-07.cern.ch", "pid": 5855, "user": "duns"}
{"hfid": "0x1e0f34a0003d0000", "fid": 2166007807591907328, "ip": "127.
